…
Join the datasets by merging `snp` into `pols`, and merging
`unemployment` into the result.

``` r
result = 
  left_join(pols, snp, by = c("year", "month")) |> 
  left_join(unemployment, by = c("year", "month"))
result
```

    ## # A tibble: 822 × 11
    ##     year month   gov_gop sen_gop rep_gop gov_dem sen_dem rep_dem president close
    ##    <dbl> <chr>     <dbl>   <dbl>   <dbl>   <dbl>   <dbl>   <dbl> <chr>     <dbl>
    ##  1  1947 January      23      51     253      23      45     198 dem          NA
    ##  2  1947 Februa…      23      51     253      23      45     198 dem          NA
    ##  3  1947 March        23      51     253      23      45     198 dem          NA
    ##  4  1947 April        23      51     253      23      45     198 dem          NA
    ##  5  1947 May          23      51     253      23      45     198 dem          NA
    ##  6  1947 June         23      51     253      23      45     198 dem          NA
    ##  7  1947 July         23      51     253      23      45     198 dem          NA
    ##  8  1947 August       23      51     253      23      45     198 dem          NA
    ##  9  1947 Septem…      23      51     253      23      45     198 dem          NA
    ## 10  1947 October      23      51     253      23      45     198 dem          NA
    ## # ℹ 812 more rows
    ## # ℹ 1 more variable: unemployment_rate <dbl>
…
    names_to = "measurement_type",
    values_to = "value"
  ) |> 
  # move homes to the last column 
  relocate(homes_powered, .after = last_col()) |> 
  # convert year and month to integer and factor
  mutate(
    month = str_to_title(month),
    month = factor(month, levels = month.name),
    year = as.integer(year)
  )
mr_trash
```

    ## # A tibble: 9,114 × 9
    ##    dumpster month  year wheel trash_type       count measurement_type   value
    ##       <dbl> <fct> <int> <chr> <chr>            <dbl> <chr>              <dbl>
    ##  1        1 May    2014 mr    plastic_bottles   1450 weight_tons         4.31
    ##  2        1 May    2014 mr    plastic_bottles   1450 volume_cubic_yards 18   
    ##  3        1 May    2014 mr    polystyrene       1820 weight_tons         4.31
    ##  4        1 May    2014 mr    polystyrene       1820 volume_cubic_yards 18   
    ##  5        1 May    2014 mr    cigarette_butts 126000 weight_tons         4.31
    ##  6        1 May    2014 mr    cigarette_butts 126000 volume_cubic_yards 18   
    ##  7        1 May    2014 mr    glass_bottles       72 weight_tons         4.31
    ##  8        1 May    2014 mr    glass_bottles       72 volume_cubic_yards 18   
    ##  9        1 May    2014 mr    plastic_bags       584 weight_tons         4.31
    ## 10        1 May    2014 mr    plastic_bags       584 volume_cubic_yards 18   
    ## # ℹ 9,104 more rows
    ## # ℹ 1 more variable: homes_powered <dbl>
…
prof_trash
```

    ## # A tibble: 1,416 × 9
    ##    dumpster month    year wheel trash_type      count measurement_type   value
    ##       <dbl> <fct>   <int> <chr> <chr>           <dbl> <chr>              <dbl>
    ##  1        1 January  2017 prof  plastic_bottles  1950 weight_tons         1.79
    ##  2        1 January  2017 prof  plastic_bottles  1950 volume_cubic_yards 15   
    ##  3        1 January  2017 prof  polystyrene      6080 weight_tons         1.79
    ##  4        1 January  2017 prof  polystyrene      6080 volume_cubic_yards 15   
    ##  5        1 January  2017 prof  cigarette_butts 19700 weight_tons         1.79
    ##  6        1 January  2017 prof  cigarette_butts 19700 volume_cubic_yards 15   
    ##  7        1 January  2017 prof  glass_bottles       8 weight_tons         1.79
    ##  8        1 January  2017 prof  glass_bottles       8 volume_cubic_yards 15   
    ##  9        1 January  2017 prof  plastic_bags     3100 weight_tons         1.79
    ## 10        1 January  2017 prof  plastic_bags     3100 volume_cubic_yards 15   
    ## # ℹ 1,406 more rows
    ## # ℹ 1 more variable: homes_powered <dbl>
…
    names_to = "measurement_type",
    values_to = "value"
  ) |> 
  # move homes to the last column 
  relocate(homes_powered, .after = last_col()) |> 
  # convert year and month to integer and factor
  mutate(
    month = str_to_title(month),
    month = factor(month, levels = month.name),
    year = as.integer(year)
  )
gwy_trash
```

    ## # A tibble: 2,630 × 9
    ##    dumpster month  year wheel trash_type      count measurement_type   value
    ##       <dbl> <fct> <int> <chr> <chr>           <dbl> <chr>              <dbl>
    ##  1        1 July   2021 gwy   plastic_bottles  1200 weight_tons         0.93
    ##  2        1 July   2021 gwy   plastic_bottles  1200 volume_cubic_yards 15   
    ##  3        1 July   2021 gwy   polystyrene       360 weight_tons         0.93
    ##  4        1 July   2021 gwy   polystyrene       360 volume_cubic_yards 15   
    ##  5        1 July   2021 gwy   cigarette_butts  3400 weight_tons         0.93
    ##  6        1 July   2021 gwy   cigarette_butts  3400 volume_cubic_yards 15   
    ##  7        1 July   2021 gwy   plastic_bags     1800 weight_tons         0.93
    ##  8        1 July   2021 gwy   plastic_bags     1800 volume_cubic_yards 15   
    ##  9        1 July   2021 gwy   wrappers           NA weight_tons         0.93
    ## 10        1 July   2021 gwy   wrappers           NA volume_cubic_yards 15   
    ## # ℹ 2,620 more rows
    ## # ℹ 1 more variable: homes_powered <dbl>
…
``` r
# calculate mean price_change for each neighborhood
mean_price_change_by_neighborhood <- 
  group_by(covid_prices, neighborhood) |> 
  summarise(mean_price_change = mean(price_change)) |> 
  arrange(mean_price_change)
mean_price_change_by_neighborhood
```

    ## # A tibble: 29 × 2
    ##    neighborhood                  mean_price_change
    ##    <chr>                                     <dbl>
    ##  1 Lower East Side                           -699.
    ##  2 Lower Manhattan                           -654.
    ##  3 Gramercy Park and Murray Hill             -634.
    ##  4 Greenwich Village and Soho                -633.
    ##  5 Chelsea and Clinton                       -623.
    ##  6 Upper West Side                           -514.
    ##  7 Upper East Side                           -478.
    ##  8 Bushwick and Williamsburg                 -337.
    ##  9 Greenpoint                                -330.
    ## 10 East Harlem                               -326.
    ## # ℹ 19 more rows

``` r
# arrange by descending order
arrange(mean_price_change_by_neighborhood, desc(mean_price_change))
```

    ## # A tibble: 29 × 2
    ##    neighborhood              mean_price_change
    ##    <chr>                                 <dbl>
    ##  1 Jamaica                              101.  
    ##  2 Bronx Park and Fordham                69.7 
    ##  3 Kingsbridge and Riverdale             36.5 
    ##  4 Sunset Park                            5.37
    ##  5 Southeast Bronx                        4.34
    ##  6 Central Bronx                         -1.85
    ##  7 Southwest Brooklyn                    -8.09
    ##  8 Southern Brooklyn                    -46.0 
    ##  9 North Queens                         -65.0 
    ## 10 Borough Park                        -117.  
    ## # ℹ 19 more rows
